{"type": "FeatureCollection", "features": [
  {"type": "Feature", "properties": {"type": "multipolygon", "name": "Lannion","center": {"lat": 48.732084,"lng": -3.459144}}, "geometry": {"type": "MultiPolygon","coordinates": [[[[-3.473157697544162,48.717184230245586],[-3.4731781,48.717018899999999],[-3.4735811,48.717067],[-3.474146237992251,48.717085376200778],[-3.495,48.715000000000003],[-3.5,48.730000000000004],[-3.53,48.725000000000001],[-3.555,48.730000000000004],[-3.555,48.740000000000002],[-3.555,48.75],[-3.545,48.75],[-3.54,48.759999999999998],[-3.495,48.755000000000003],[-3.495,48.774999999999999],[-3.485,48.785000000000004],[-3.46,48.789999999999999],[-3.46,48.780000000000001],[-3.45,48.774999999999999],[-3.425,48.774999999999999],[-3.4,48.759999999999998],[-3.395,48.740000000000002],[-3.41,48.730000000000004],[-3.385,48.719999999999999],[-3.385,48.710000000000001],[-3.42,48.700000000000003],[-3.445,48.719999999999999],[-3.473157697544162,48.717184230245586]]]]}},
  {"type": "Feature", "properties": {"type": "multipolygon", "name": "Le port de Dahouët","center": {"lat": 48.5786917, "lng": -2.5644830}}, "geometry": {"type": "MultiPolygon", "coordinates": [ [ [ [ -2.57, 48.609999999999999 ], [ -2.555, 48.609999999999999 ], [ -2.55, 48.600000000000001 ], [ -2.495, 48.609999999999999 ], [ -2.49, 48.585000000000001 ], [ -2.5, 48.57 ], [ -2.52, 48.560000000000002 ], [ -2.555, 48.560000000000002 ], [ -2.58, 48.575000000000003 ], [ -2.57, 48.590000000000003 ], [ -2.56, 48.590000000000003 ], [ -2.57, 48.609999999999999 ] ] ], [ [ [ -2.575, 48.655000000000001 ], [ -2.565, 48.655000000000001 ], [ -2.56, 48.645000000000003 ], [ -2.58, 48.645000000000003 ], [ -2.575, 48.655000000000001 ] ] ], [ [ [ -2.58, 48.620000000000005 ], [ -2.57, 48.625 ], [ -2.565, 48.615000000000002 ], [ -2.575, 48.609999999999999 ], [ -2.585, 48.615000000000002 ], [ -2.58, 48.620000000000005 ] ] ], [ [ [ -2.625, 48.649999999999999 ], [ -2.625, 48.645000000000003 ], [ -2.63, 48.640000000000001 ], [ -2.635, 48.649999999999999 ], [ -2.625, 48.649999999999999 ] ] ] ] } },
  {"type": "Feature", "properties": {"type": "multipolygon", "name": "Trégastel","center": {"lat": 48.809,"lng":  -3.498}}, "geometry": {"type": "MultiPolygon","coordinates": [[[[-3.54,48.829999999999998],[-3.535,48.840000000000003],[-3.515,48.844999999999999],[-3.49,48.840000000000003],[-3.485,48.829999999999998],[-3.49,48.789999999999999],[-3.51,48.789999999999999],[-3.51,48.800000000000004],[-3.535,48.814999999999998],[-3.54,48.829999999999998]],[[-3.515,48.805],[-3.51,48.805],[-3.51,48.810000000000002],[-3.515,48.810000000000002],[-3.515,48.805]]]]}},
  {"type": "Feature", "properties": {"type": "multipolygon", "name": "Dinard","center": {"lat": 48.634,"lng": -2.061  }}, "geometry":{  "type": "GeometryCollection",  "geometries": [  {  "type": "MultiPolygon",  "coordinates": [  [  [  [  -2.056529944018765,  48.641088324003128  ],  [  -2.0565404,  48.641256400000003  ],  [  -2.0564733,  48.641296099999998  ],  [  -2.0563054,  48.641181500000002  ],  [  -2.0561662,  48.641066000000002  ],  [  -2.056193421287364,  48.64103223688123  ],  [  -2.05,  48.640000000000001  ],  [  -2.045,  48.645000000000003  ],  [  -2.045,  48.630000000000003  ],  [  -2.03,  48.630000000000003  ],  [  -2.025,  48.620000000000005  ],  [  -2.035,  48.609999999999999  ],  [  -2.065,  48.609999999999999  ],  [  -2.085,  48.600000000000001  ],  [  -2.085,  48.634999999999998  ],  [  -2.08,  48.645000000000003  ],  [  -2.056529944018765,  48.641088324003128  ]  ]  ],  [  [  [  -2.075,  48.649999999999999  ],  [  -2.075,  48.660000000000004  ],  [  -2.07,  48.660000000000004  ],  [  -2.065,  48.649999999999999  ],  [  -2.075,  48.649999999999999  ]  ]  ]  ]  }  ]  }},
  {"type": "Feature", "properties": {"type": "multipolygon", "name": "Toulouse","center": {"lat": 43.6,"lng": 1.45  }}, "geometry": {"type": "MultiPolygon","coordinates": [[[[1.359,43.608000000000004],[1.362,43.612000000000002],[1.362,43.616],[1.365,43.618000000000002],[1.368,43.618000000000002],[1.371,43.614000000000004],[1.387,43.609000000000002],[1.393,43.609999999999999],[1.397,43.612000000000002],[1.399,43.615000000000002],[1.404,43.616],[1.407,43.621000000000002],[1.407,43.627000000000002],[1.41,43.634],[1.408,43.646999999999998],[1.412,43.652000000000001],[1.413,43.657000000000004],[1.415,43.655000000000001],[1.425,43.654000000000003],[1.431,43.651000000000003],[1.436,43.652999999999999],[1.437,43.646000000000001],[1.441,43.642000000000003],[1.446,43.642000000000003],[1.449,43.646000000000001],[1.456,43.645000000000003],[1.461,43.649999999999999],[1.462,43.645000000000003],[1.47,43.637999999999998],[1.477,43.636000000000003],[1.484,43.637],[1.487,43.639000000000003],[1.485,43.636000000000003],[1.476,43.633000000000003],[1.474,43.630000000000003],[1.48,43.609000000000002],[1.48,43.603000000000002],[1.487,43.594000000000001],[1.49,43.581000000000003],[1.492,43.578000000000003],[1.507,43.572000000000003],[1.508,43.567],[1.498,43.558999999999997],[1.496,43.560000000000002],[1.488,43.558999999999997],[1.482,43.563000000000002],[1.472,43.561999999999998],[1.46,43.555],[1.45,43.544000000000004],[1.438,43.551000000000002],[1.423,43.551000000000002],[1.413,43.555],[1.408,43.555],[1.404,43.551000000000002],[1.397,43.550000000000004],[1.388,43.544000000000004],[1.385,43.548000000000002],[1.38,43.550000000000004],[1.38,43.557000000000002],[1.369,43.564],[1.374,43.567999999999998],[1.374,43.578000000000003],[1.382,43.585999999999999],[1.383,43.591999999999999],[1.379,43.596000000000004],[1.373,43.596000000000004],[1.371,43.600999999999999],[1.36,43.606000000000002],[1.359,43.608000000000004]]]]}},
  {"type": "Feature", "properties": {"type": "multipolygon", "name": "Questembert","center": {"lat": 47.661,"lng": -2.451}}, "geometry": {"type": "MultiPolygon","coordinates":
  [[[[-2.473157049539533,47.632406135780066],[-2.4732115,47.632224800000003],[-2.473278,47.632078999999997],[-2.4733176,47.632044999999998],[-2.473349,47.6320446],[-2.474144750134093,47.632265035695127],[-2.49,47.630000000000003],[-2.505,47.664999999999999],[-2.485,47.704999999999998],[-2.475,47.704999999999998],[-2.47,47.715000000000003],[-2.415,47.710000000000001],[-2.41,47.695],[-2.395,47.695],[-2.395,47.685000000000002],[-2.365,47.675000000000004],[-2.37,47.649999999999999],[-2.385,47.645000000000003],[-2.38,47.625],[-2.395,47.625],[-2.395,47.615000000000002],[-2.41,47.609999999999999],[-2.45,47.615000000000002],[-2.445,47.630000000000003],[-2.455,47.634999999999998],[-2.465965840460178,47.633433451362833],[-2.4661125,47.6333141],[-2.4661613,47.633248199999997],[-2.4661835,47.6331846],[-2.4661365,47.633105399999998],[-2.4660039,47.633015899999997],[-2.4658282,47.632930600000002],[-2.4658222,47.632911999999997],[-2.4659883,47.632595199999997],[-2.4660329,47.632531999999998],[-2.4663526,47.632268600000003],[-2.466572,47.6321485],[-2.4666213,47.6321364],[-2.4672696,47.632279799999999],[-2.4675355,47.632308799999997],[-2.4677008,47.632306100000001],[-2.4681064,47.632256099999999],[-2.4682694,47.632249000000002],[-2.4684281,47.632263000000002],[-2.4685799,47.632290400000002],[-2.4691013,47.632420199999999],[-2.470608769513741,47.632770175783754],[-2.473157049539533,47.632406135780066]]]]}},
  {"type": "Feature", "properties": {"type": "multipolygon", "name": "Rennes","center": {"lat": 48.108,"lng": -1.68}}, "geometry": {"type": "MultiPolygon","coordinates": [[[[-1.757,48.090000000000003],[-1.733,48.120000000000005],[-1.744,48.128],[-1.743,48.137],[-1.727,48.149000000000001],[-1.7,48.149000000000001],[-1.69,48.139000000000003],[-1.652,48.146999999999998],[-1.631,48.160000000000004],[-1.62,48.157000000000004],[-1.62,48.143999999999998],[-1.629,48.137],[-1.623,48.127000000000002],[-1.629,48.106999999999999],[-1.62,48.097000000000001],[-1.636,48.078000000000003],[-1.701,48.075000000000003],[-1.709,48.079999999999998],[-1.705,48.091000000000001],[-1.744,48.075000000000003],[-1.756,48.079000000000001],[-1.757,48.090000000000003]]]]}},
  {"type": "Feature", "properties": {"type": "multipolygon", "name": "Redon","center": {"lat": 47.654,"lng": -2.079}}, "geometry": {"type": "MultiPolygon","coordinates": [[[[-2.115,47.655000000000001],[-2.105,47.664999999999999],[-2.11,47.68],[-2.1,47.685000000000002],[-2.04,47.675000000000004],[-2.05,47.645000000000003],[-2.075,47.649999999999999],[-2.09,47.640000000000001],[-2.095,47.625],[-2.12,47.645000000000003],[-2.115,47.655000000000001]]]]}},
  {"type": "Feature", "properties": {"type": "multipolygon", "name": "Taupont","center": {"lat": 47.959,"lng": -2.437}}, "geometry": {"type": "MultiPolygon","coordinates": [[[[-2.48,47.975000000000001],[-2.48,47.990000000000002],[-2.465,48.005000000000003],[-2.44,48.009999999999998],[-2.44,47.995000000000005],[-2.42,47.995000000000005],[-2.4,47.965000000000003],[-2.41,47.960000000000001],[-2.41,47.939999999999998],[-2.435,47.925000000000004],[-2.435,47.914999999999999],[-2.455,47.910000000000004],[-2.475,47.939999999999998],[-2.475,47.954999999999998],[-2.465,47.954999999999998],[-2.48,47.965000000000003],[-2.48,47.975000000000001]]]]}},

  {"type": "Feature", "properties": {"type": "multipolygon", "name": "Thionville","center": {"lat": 49.366,"lng": 6.146}}, "geometry": {"type": "GeometryCollection","geometries": [{"type": "MultiPolygon","coordinates": [[[[6.174,49.396999999999998],[6.175,49.408999999999999],[6.18,49.408999999999999],[6.182,49.407000000000004],[6.187,49.405999999999999],[6.189,49.402999999999999],[6.193000000000001,49.401000000000003],[6.199,49.401000000000003],[6.214,49.396000000000001],[6.218,49.396999999999998],[6.222,49.390999999999998],[6.209000000000001,49.393000000000001],[6.201000000000001,49.390999999999998],[6.195,49.392000000000003],[6.192,49.390000000000001],[6.183,49.396000000000001],[6.174,49.396999999999998]]],[[[6.064,49.384],[6.062,49.386000000000003],[6.063,49.387999999999998],[6.077,49.390000000000001],[6.091,49.404000000000003],[6.092000000000001,49.407000000000004],[6.101,49.402000000000001],[6.106,49.401000000000003],[6.115,49.401000000000003],[6.117,49.402999999999999],[6.125,49.404000000000003],[6.127,49.402000000000001],[6.128,49.395000000000003],[6.134,49.387999999999998],[6.135,49.381],[6.137,49.380000000000003],[6.138,49.375],[6.143,49.372],[6.15,49.372],[6.157,49.368000000000002],[6.165,49.369],[6.166,49.371000000000002],[6.173,49.368000000000002],[6.175,49.364000000000004],[6.179,49.363],[6.179,49.361000000000004],[6.176,49.361000000000004],[6.173,49.358000000000004],[6.174,49.355000000000004],[6.164,49.355000000000004],[6.162,49.353000000000002],[6.162,49.344999999999999],[6.167,49.341999999999999],[6.159,49.341000000000001],[6.15,49.334000000000003],[6.146,49.335000000000001],[6.147,49.338999999999999],[6.152,49.340000000000003],[6.154,49.341999999999999],[6.156,49.347999999999999],[6.153,49.350999999999999],[6.151,49.350999999999999],[6.148,49.356000000000002],[6.139,49.356000000000002],[6.131,49.362000000000002],[6.125,49.362000000000002],[6.122,49.358000000000004],[6.118,49.359000000000002],[6.113,49.356000000000002],[6.112,49.353000000000002],[6.102,49.353999999999999],[6.101,49.356000000000002],[6.091,49.356000000000002],[6.087,49.353999999999999],[6.087,49.356000000000002],[6.082,49.359000000000002],[6.078,49.358000000000004],[6.075,49.353999999999999],[6.072,49.358000000000004],[6.064,49.361000000000004],[6.067,49.363],[6.069,49.368000000000002],[6.081,49.375999999999998],[6.081,49.381],[6.076000000000001,49.384],[6.064,49.384]]]]}]}},

  {"type": "Feature", "properties": {"type": "multipolygon", "name": "Vannes","center": {"lat": 47.655,"lng": -2.761}}, "geometry": {"type": "MultiPolygon","coordinates": [[[[-2.819,47.655000000000001],[-2.819,47.660000000000004],[-2.816,47.663000000000004],[-2.811,47.664999999999999],[-2.8,47.664999999999999],[-2.801,47.670999999999999],[-2.804,47.675000000000004],[-2.803,47.683999999999997],[-2.8,47.686999999999998],[-2.792,47.691000000000003],[-2.788,47.691000000000003],[-2.78,47.697000000000003],[-2.774,47.698999999999998],[-2.767,47.697000000000003],[-2.764,47.694000000000003],[-2.762,47.691000000000003],[-2.761,47.683],[-2.748,47.685000000000002],[-2.744,47.68],[-2.743,47.676000000000002],[-2.738,47.673000000000002],[-2.727,47.673000000000002],[-2.717,47.679000000000002],[-2.712,47.679000000000002],[-2.703,47.673000000000002],[-2.701,47.673000000000002],[-2.697,47.677],[-2.682,47.679000000000002],[-2.68,47.678000000000004],[-2.678,47.673000000000002],[-2.679,47.663000000000004],[-2.687,47.655999999999999],[-2.692,47.655000000000001],[-2.694,47.652000000000001],[-2.698,47.649999999999999],[-2.701,47.651000000000003],[-2.703,47.646999999999998],[-2.71,47.645000000000003],[-2.713,47.646999999999998],[-2.718,47.646999999999998],[-2.724,47.651000000000003],[-2.732,47.651000000000003],[-2.733,47.648000000000003],[-2.731,47.646000000000001],[-2.732,47.640999999999998],[-2.737,47.640000000000001],[-2.741,47.637],[-2.741,47.619999999999997],[-2.744,47.617000000000004],[-2.753,47.618000000000002],[-2.756,47.624000000000002],[-2.761,47.628],[-2.768,47.625999999999998],[-2.773,47.627000000000002],[-2.773,47.625],[-2.776,47.622999999999998],[-2.783,47.625],[-2.785,47.628999999999998],[-2.79,47.630000000000003],[-2.793,47.637],[-2.802,47.648000000000003],[-2.809,47.649000000000001],[-2.811,47.651000000000003],[-2.812,47.649999999999999],[-2.816,47.651000000000003],[-2.818,47.652000000000001],[-2.819,47.655000000000001]]]]}},

  {"type": "Feature", "properties": {"type": "multipolygon", "name": "La plage de Damgan","center": {"lat": 47.519 ,"lng": -2.578}}, "geometry": {"type": "MultiPolygon","coordinates": [[[[-2.632276005809127,47.504319001452281],[-2.6322918,47.504277199999997],[-2.6322304,47.503938900000001],[-2.6322128,47.503853700000001],[-2.6322232,47.503801899999999],[-2.6322227,47.503354899999998],[-2.6324725,47.503336699999998],[-2.6326552,47.503837599999997],[-2.6323514,47.504257799999998],[-2.632385384355798,47.504346346088951],[-2.635,47.505000000000003],[-2.64,47.509999999999998],[-2.615,47.520000000000003],[-2.615,47.530000000000001],[-2.585,47.539999999999999],[-2.545,47.539999999999999],[-2.54,47.530000000000001],[-2.54,47.515000000000001],[-2.55,47.505000000000003],[-2.57,47.515000000000001],[-2.575,47.509999999999998],[-2.6,47.515000000000001],[-2.615,47.5],[-2.632276005809127,47.504319001452281]]]]}},

  {"type": "Feature", "properties": {"type": "multipolygon", "name": "Les Mureaux","center": {"lat": 48.987,"lng": 1.917}}, "geometry": {"type": "MultiPolygon","coordinates": [[[[1.872,48.990000000000002],[1.872,48.994],[1.874,48.996000000000002],[1.909,49.005000000000003],[1.937,49.011000000000003],[1.948,49.011000000000003],[1.951,49.006999999999998],[1.943,48.978999999999999],[1.94,48.977000000000004],[1.936,48.977000000000004],[1.936,48.974000000000004],[1.934,48.972000000000001],[1.928,48.972000000000001],[1.928,48.969000000000001],[1.925,48.965000000000003],[1.919,48.965000000000003],[1.917,48.966999999999999],[1.915,48.966000000000001],[1.912,48.969000000000001],[1.906,48.968000000000004],[1.904,48.969999999999999],[1.904,48.975000000000001],[1.895,48.975000000000001],[1.892,48.972000000000001],[1.888,48.972000000000001],[1.884,48.975999999999999],[1.875,48.978000000000002],[1.873,48.980000000000004],[1.874,48.988],[1.872,48.990000000000002]]]]}},

  {"type": "Feature", "properties": {"type": "multipolygon", "name": "Paris","center": {"lat": 48.878,"lng": 2.318}}, "geometry": {"type": "GeometryCollection","geometries": [{"type": "MultiPolygon","coordinates": [[[[2.41,48.829999999999998],[2.419,48.829999999999998],[2.424,48.832000000000001],[2.426,48.834000000000003],[2.426,48.838000000000001],[2.439,48.837000000000003],[2.444,48.841999999999999],[2.457,48.840000000000003],[2.464,48.837000000000003],[2.464,48.835000000000001],[2.461,48.832000000000001],[2.461,48.825000000000003],[2.458,48.820999999999998],[2.44,48.822000000000003],[2.43,48.828000000000003],[2.419,48.828000000000003],[2.41,48.829999999999998]]],[[[2.229,48.856999999999999],[2.234,48.866],[2.242,48.868000000000002],[2.247,48.872],[2.257,48.870000000000005],[2.261,48.875999999999998],[2.28,48.874000000000002],[2.289,48.884],[2.297,48.886000000000003],[2.308,48.892000000000003],[2.322,48.896999999999998],[2.387,48.898000000000003],[2.394,48.893999999999998],[2.395,48.884],[2.397,48.881],[2.409,48.875],[2.412,48.846000000000004],[2.41,48.838999999999999],[2.407,48.835000000000001],[2.408,48.832000000000001],[2.402,48.834000000000003],[2.364,48.82],[2.357,48.82],[2.353,48.823],[2.347,48.82],[2.339,48.82],[2.327,48.823999999999998],[2.292,48.831000000000003],[2.282,48.835999999999999],[2.277,48.835999999999999],[2.274,48.832999999999998],[2.274,48.835000000000001],[2.271,48.838000000000001],[2.256,48.838999999999999],[2.255,48.841999999999999],[2.257,48.844999999999999],[2.255,48.849000000000004],[2.244,48.850999999999999],[2.241,48.853999999999999],[2.229,48.856999999999999]]]]}]}},

  {"type": "Feature", "properties": {"type": "multipolygon", "name": "Goussainville","center": {"lat": 49.032,"lng": 2.47}}, "geometry": {"type": "MultiPolygon","coordinates": [[[[2.437,49.033000000000001],[2.438,49.038000000000004],[2.446,49.042000000000002],[2.455,49.042999999999999],[2.457,49.048000000000002],[2.465,49.048999999999999],[2.471,49.045999999999999],[2.472,49.047000000000004],[2.478,49.045000000000002],[2.479,49.042999999999999],[2.482,49.042000000000002],[2.484,49.036000000000001],[2.488,49.035000000000004],[2.489,49.030000000000001],[2.496,49.030000000000001],[2.497,49.027999999999999],[2.5,49.027999999999999],[2.502,49.026000000000003],[2.502,49.021999999999998],[2.494,49.008000000000003],[2.491,49.006],[2.48,49.006999999999998],[2.469,49.003999999999998],[2.446,49.008000000000003],[2.442,49.006999999999998],[2.439,49.009999999999998],[2.439,49.015999999999998],[2.434,49.027000000000001],[2.435,49.032000000000004],[2.437,49.033000000000001]]]]}},

  {"type": "Feature", "properties": {"type": "multipolygon", "name": "Villiers le Bel","center": {"lat": 49.006,"lng": 2.389}}, "geometry": {"type": "MultiPolygon","coordinates": [[[[2.375,49.008000000000003],[2.375,49.012999999999998],[2.378,49.018000000000001],[2.391,49.018000000000001],[2.392,49.020000000000003],[2.397,49.021000000000001],[2.408,49.027999999999999],[2.412,49.027999999999999],[2.42,49.023000000000003],[2.426,49.021999999999998],[2.427,49.017000000000003],[2.432,49.014000000000003],[2.432,49.009999999999998],[2.424,49.003999999999998],[2.422,48.996000000000002],[2.42,48.996000000000002],[2.42,48.994],[2.416,48.990000000000002],[2.411,48.990000000000002],[2.41,48.988],[2.397,48.991],[2.391,48.995000000000005],[2.379,48.999000000000002],[2.377,49.003999999999998],[2.375,49.005000000000003],[2.375,49.008000000000003]]]]}},

  {"type": "Feature", "properties": {"type": "multipolygon", "name": "Meaux","center": {"lat": 48.959,"lng": 2.888}}, "geometry":{"type": "MultiPolygon","coordinates": [[[[2.859,48.954999999999998],[2.861,48.963000000000001],[2.867,48.966000000000001],[2.87,48.974000000000004],[2.88,48.981999999999999],[2.889,48.983000000000004],[2.895,48.983000000000004],[2.907,48.978000000000002],[2.914,48.971000000000004],[2.924,48.968000000000004],[2.927,48.963999999999999],[2.94,48.963000000000001],[2.948,48.960000000000001],[2.947,48.954000000000001],[2.943,48.951999999999998],[2.94,48.948],[2.922,48.939],[2.917,48.935000000000002],[2.907,48.932000000000002],[2.896,48.932000000000002],[2.888,48.936],[2.884,48.941000000000003],[2.875,48.936999999999998],[2.868,48.942],[2.869,48.947000000000003],[2.872,48.950000000000003],[2.87,48.950000000000003],[2.869,48.951999999999998],[2.861,48.951000000000001],[2.859,48.954999999999998]]]]} },

  {"type": "Feature", "properties": {"type": "multipolygon", "name": "Chelles","center": {"lat": 48.877,"lng": 2.578}}, "geometry": {"type": "MultiPolygon","coordinates": [[[[2.556,48.887],[2.556,48.889000000000003],[2.562,48.893999999999998],[2.583,48.899000000000001],[2.58,48.902000000000001],[2.581,48.905999999999999],[2.584,48.908999999999999],[2.587,48.908999999999999],[2.591,48.911999999999999],[2.599,48.908999999999999],[2.616,48.908000000000001],[2.62,48.905000000000001],[2.621,48.902000000000001],[2.632,48.896000000000001],[2.636,48.890999999999998],[2.634,48.887],[2.627,48.883000000000003],[2.629,48.871000000000002],[2.623,48.865000000000002],[2.62,48.865000000000002],[2.621,48.859999999999999],[2.619,48.856999999999999],[2.615,48.856999999999999],[2.599,48.863],[2.591,48.861000000000004],[2.575,48.861000000000004],[2.573,48.863],[2.566,48.862000000000002],[2.564,48.864000000000004],[2.565,48.877000000000002],[2.556,48.881999999999998],[2.556,48.887]]]]} },

  {"type": "Feature", "properties": {"type": "multipolygon", "name": "Noirmoutier","center": {"lat": 47.004 ,"lng": -2.253}}, "geometry": {"type": "GeometryCollection","geometries": [{"type": "MultiPolygon","coordinates": [[[[-2.360262110434292,47.042368944782858],[-2.3602804,47.042387900000001],[-2.3603281,47.042493399999998],[-2.3604963,47.042610400000001],[-2.360496,47.042639299999998],[-2.3605591,47.042705699999999],[-2.360586,47.042810199999998],[-2.3606256,47.042859200000002],[-2.360613,47.042909299999998],[-2.3606487,47.0430092],[-2.3606463,47.043036700000002],[-2.3605628,47.043105699999998],[-2.360535,47.043108799999999],[-2.3602016,47.0430001],[-2.360097,47.042939599999997],[-2.3600581,47.042885900000002],[-2.3599051,47.042819000000001],[-2.3598603,47.042757899999998],[-2.359836,47.042741800000002],[-2.3598107,47.042742099999998],[-2.3597006,47.042778900000002],[-2.359675,47.042748000000003],[-2.359596210526314,47.042701894736844],[-2.355,47.045000000000002],[-2.35,47.035000000000004],[-2.36,47.035000000000004],[-2.365,47.039999999999999],[-2.360262110434292,47.042368944782858]]],[[[-2.307040620845919,47.024081241691839],[-2.3076261,47.024543799999996],[-2.3076811,47.024703600000002],[-2.307609,47.024978500000003],[-2.307521400661838,47.025042801323679],[-2.31,47.030000000000001],[-2.28,47.035000000000004],[-2.245,47.030000000000001],[-2.24,47.020000000000003],[-2.215,47.015000000000001],[-2.215,46.984999999999999],[-2.235,46.994999999999997],[-2.26,46.984999999999999],[-2.265,46.990000000000002],[-2.305,46.984999999999999],[-2.305,47.020000000000003],[-2.307040620845919,47.024081241691839]]]]}]}},

  {"type": "Feature", "properties": {"type": "multipolygon", "name": "Pleumeleuc","center": {"lat": 48.184,"lng": -1.917}}, "geometry": {"type": "MultiPolygon","coordinates": [[[[-1.896039031313122,48.156415612525251],[-1.8963231,48.156428200000001],[-1.8964446,48.156455399999999],[-1.8965094,48.1565163],[-1.896552446809216,48.156620978723687],[-1.905,48.160000000000004],[-1.92,48.155000000000001],[-1.94,48.185000000000002],[-1.93,48.204999999999998],[-1.84,48.204999999999998],[-1.84,48.185000000000002],[-1.865,48.185000000000002],[-1.88,48.149999999999999],[-1.896039031313122,48.156415612525251]]]]} },

  {"type": "Feature", "properties": {"type": "multipolygon", "name": "Roz Landrieux","center": {"lat": 48.544 ,"lng": -1.815}}, "geometry": {"type": "MultiPolygon","coordinates": [[[[-1.865,48.560000000000002],[-1.845,48.564999999999998],[-1.845,48.579999999999998],[-1.825,48.575000000000003],[-1.815,48.564999999999998],[-1.79,48.560000000000002],[-1.775,48.524999999999999],[-1.79,48.524999999999999],[-1.795,48.515000000000001],[-1.825,48.515000000000001],[-1.825,48.524999999999999],[-1.845,48.535000000000004],[-1.845,48.545000000000002],[-1.855,48.545000000000002],[-1.865,48.560000000000002]]]]}},

  {"type": "Feature", "properties": {"type": "multipolygon", "name": "Quintin","center": {"lat": 48.404,"lng": -2.911}}, "geometry": {"type": "MultiPolygon","coordinates": [[[[-2.935,48.401000000000003],[-2.934,48.407000000000004],[-2.932,48.408999999999999],[-2.924,48.410000000000004],[-2.92,48.413000000000004],[-2.912,48.413000000000004],[-2.906,48.416000000000004],[-2.896,48.414999999999999],[-2.891,48.408000000000001],[-2.892,48.402000000000001],[-2.897,48.398000000000003],[-2.902,48.390999999999998],[-2.906,48.389000000000003],[-2.911,48.390999999999998],[-2.912,48.393000000000001],[-2.916,48.390000000000001],[-2.92,48.390000000000001],[-2.924,48.393000000000001],[-2.924,48.396000000000001],[-2.932,48.395000000000003],[-2.935,48.401000000000003]]]]}},

  {"type": "Feature", "properties": {"type": "multipolygon", "name": "Grand Fougeray","center": {"lat": 47.724,"lng": -1.732}}, "geometry": {"type": "MultiPolygon","coordinates": [[[[-1.670895931848185,47.740000000000002],[-1.6709257,47.740217999999999],[-1.6709096,47.740291999999997],[-1.6705468,47.740172700000002],[-1.6705091,47.740167200000002],[-1.670471,47.740172999999999],[-1.67034,47.740254299999997],[-1.6703105,47.740254800000002],[-1.6702028,47.740223100000001],[-1.6701304,47.740180199999998],[-1.6700643,47.7401093],[-1.670007900533537,47.740000000000002],[-1.655,47.740000000000002],[-1.64,47.730000000000004],[-1.64,47.719999999999999],[-1.655,47.704999999999998],[-1.69,47.710000000000001],[-1.71,47.695],[-1.735,47.695],[-1.745,47.704999999999998],[-1.765,47.695],[-1.79,47.695],[-1.78,47.719999999999999],[-1.785,47.730000000000004],[-1.78,47.75],[-1.79,47.75],[-1.79,47.759999999999998],[-1.78,47.774999999999999],[-1.765,47.780000000000001],[-1.735,47.780000000000001],[-1.72,47.770000000000003],[-1.705,47.774999999999999],[-1.7,47.75],[-1.68,47.740000000000002],[-1.670895931848185,47.740000000000002]]]]}},

  {"type": "Feature", "properties": {"type": "multipolygon", "name": "Bruc sur Aff","center": {"lat": 47.814,"lng": -2.019}}, "geometry": {"type": "MultiPolygon","coordinates": [[[[-2.046494082142838,47.818831360714277],[-2.0466336,47.818862699999997],[-2.0467635,47.818872800000001],[-2.0468439,47.818879000000003],[-2.0468745,47.818894],[-2.046892225903614,47.818964075301203],[-2.05,47.82],[-2.035,47.844999999999999],[-2.015,47.850000000000001],[-1.995,47.840000000000003],[-1.99,47.825000000000003],[-1.97,47.82],[-1.97,47.805],[-1.96,47.800000000000004],[-1.985,47.780000000000001],[-2.025,47.795000000000002],[-2.035,47.814999999999998],[-2.046494082142838,47.818831360714277]]]]}},

  {"type": "Feature", "properties": {"type": "multipolygon", "name": "Breteil","center": {"lat": 48.145,"lng": -1.898}}, "geometry": {"type": "MultiPolygon","coordinates": [[[[-1.905927732903171,48.163240966612896],[-1.9058945,48.163244800000001],[-1.9055513,48.163312400000002],[-1.9049561,48.163503499999997],[-1.9047279,48.163246899999997],[-1.9046827,48.163152599999997],[-1.904699875412135,48.163087484426519],[-1.88,48.160000000000004],[-1.88,48.125],[-1.89,48.115000000000002],[-1.93,48.109999999999999],[-1.945,48.130000000000003],[-1.945,48.140000000000001],[-1.925,48.149999999999999],[-1.92,48.164999999999999],[-1.905927732903171,48.163240966612896]]]]}},

  {"type": "Feature", "properties": {"type": "multipolygon", "name": "Rosheim","center": {"lat": 48.495,"lng": 7.458}}, "geometry": {"type": "MultiPolygon","coordinates": [[[[7.316,48.486000000000004],[7.318000000000001,48.490000000000002],[7.325,48.495000000000005],[7.34,48.497999999999998],[7.347,48.496000000000002],[7.358000000000001,48.496000000000002],[7.37,48.492000000000004],[7.38,48.492000000000004],[7.385,48.496000000000002],[7.388,48.503999999999998],[7.392,48.503999999999998],[7.394,48.502000000000002],[7.401,48.506],[7.403,48.505000000000003],[7.413,48.506999999999998],[7.416,48.509999999999998],[7.424,48.509],[7.428,48.503999999999998],[7.43,48.503999999999998],[7.448,48.508000000000003],[7.45,48.512],[7.466,48.514000000000003],[7.47,48.515999999999998],[7.491000000000001,48.515999999999998],[7.494,48.514000000000003],[7.516,48.515000000000001],[7.518,48.512999999999998],[7.518,48.503],[7.516,48.502000000000002],[7.516,48.494],[7.512,48.490000000000002],[7.49,48.490000000000002],[7.482,48.486000000000004],[7.469,48.486000000000004],[7.462,48.481000000000002],[7.453,48.478999999999999],[7.449,48.481000000000002],[7.441,48.481000000000002],[7.439,48.483000000000004],[7.434,48.484000000000002],[7.405,48.483000000000004],[7.390000000000001,48.478999999999999],[7.381,48.472999999999999],[7.369,48.469999999999999],[7.365,48.465000000000003],[7.36,48.463999999999999],[7.355,48.460000000000001],[7.346,48.459000000000003],[7.342000000000001,48.457000000000001],[7.318000000000001,48.460999999999999],[7.316,48.463999999999999],[7.317,48.468000000000004],[7.319,48.469000000000001],[7.317,48.472000000000001],[7.318000000000001,48.475999999999999],[7.316,48.478999999999999],[7.316,48.486000000000004]]]]}},

  {"type": "Feature", "properties": {"type": "multipolygon", "name": "Forbach","center": {"lat": 49.187,"lng": 6.9}}, "geometry": {"type": "MultiPolygon","coordinates": [[[[6.847,49.191000000000003],[6.846,49.195],[6.848,49.197000000000003],[6.851,49.197000000000003],[6.856,49.201999999999998],[6.856,49.204000000000001],[6.868,49.209000000000003],[6.879,49.210999999999999],[6.883,49.215000000000003],[6.892,49.213000000000001],[6.896,49.213999999999999],[6.924,49.206000000000003],[6.927,49.204000000000001],[6.927,49.198999999999998],[6.92,49.195],[6.927,49.197000000000003],[6.928,49.200000000000003],[6.933,49.203000000000003],[6.942,49.204999999999998],[6.949,49.204999999999998],[6.951000000000001,49.203000000000003],[6.95,49.198],[6.947,49.195],[6.948,49.194000000000003],[6.947,49.188000000000002],[6.944,49.186999999999998],[6.942,49.188000000000002],[6.935,49.185000000000002],[6.933,49.182000000000002],[6.923,49.179000000000002],[6.918,49.173999999999999],[6.91,49.172000000000004],[6.893,49.172000000000004],[6.889,49.170999999999999],[6.886,49.167999999999999],[6.881,49.167999999999999],[6.87,49.173999999999999],[6.86,49.173999999999999],[6.857,49.177],[6.855,49.183999999999997],[6.847,49.191000000000003]],[[6.919,49.195],[6.918,49.195],[6.916,49.195],[6.917,49.194000000000003],[6.919,49.195]]]]}},

  {"type": "Feature", "properties": {"type": "multipolygon", "name": "Saint-Gilles","center": {"lat": 48.153 ,"lng": -1.828}}, "geometry": {"type": "MultiPolygon","coordinates": [[[[-1.895,48.134999999999998],[-1.88,48.18],[-1.855,48.18],[-1.855,48.170000000000002],[-1.84,48.18],[-1.82,48.18],[-1.82,48.164999999999999],[-1.8,48.155000000000001],[-1.82,48.134999999999998],[-1.845,48.134999999999998],[-1.865,48.125],[-1.89,48.125],[-1.895,48.134999999999998]]]]}},

  {"type": "Feature", "properties": {"type": "multipolygon", "name": "Wimmenau","center": {"lat": 48.909,"lng": 7.419}}, "geometry": {"type": "MultiPolygon","coordinates": [[[[7.373,48.944000000000003],[7.374000000000001,48.950000000000003],[7.379,48.954999999999998],[7.395,48.957000000000001],[7.398000000000001,48.951999999999998],[7.404,48.948999999999998],[7.404,48.947000000000003],[7.41,48.945999999999998],[7.419,48.939999999999998],[7.454,48.939999999999998],[7.455,48.938000000000002],[7.462,48.938000000000002],[7.464,48.933],[7.46,48.929000000000002],[7.463,48.928000000000004],[7.464,48.922000000000004],[7.468,48.919000000000004],[7.466,48.908999999999999],[7.464,48.905999999999999],[7.459000000000001,48.905999999999999],[7.458,48.904000000000003],[7.453,48.902999999999999],[7.453,48.901000000000003],[7.457,48.899000000000001],[7.457,48.893999999999998],[7.455,48.892000000000003],[7.451000000000001,48.892000000000003],[7.44,48.899000000000001],[7.408,48.892000000000003],[7.399,48.892000000000003],[7.395,48.893999999999998],[7.393,48.898000000000003],[7.389,48.899000000000001],[7.383,48.904000000000003],[7.383,48.908000000000001],[7.385,48.910000000000004],[7.392,48.910000000000004],[7.394,48.911999999999999],[7.391,48.911999999999999],[7.389,48.914000000000001],[7.390000000000001,48.922000000000004],[7.385,48.932000000000002],[7.386,48.932000000000002],[7.385,48.939999999999998],[7.384,48.941000000000003],[7.376,48.939999999999998],[7.373,48.944000000000003]]]]}},

  {"type": "Feature", "properties": {"type": "multipolygon", "name": "Fort Casso","center": {"lat": 49.046 ,"lng": 7.264}}, "geometry":{"type": "MultiPolygon","coordinates": [[[[7.229,49.051000000000002],[7.234,49.056000000000004],[7.24,49.057000000000002],[7.251,49.064],[7.261,49.061999999999998],[7.27,49.063000000000002],[7.275,49.061],[7.286,49.061],[7.294,49.057000000000002],[7.299,49.052],[7.3,49.045999999999999],[7.315,49.038000000000004],[7.316,49.032000000000004],[7.313,49.029000000000003],[7.313,49.024000000000001],[7.31,49.023000000000003],[7.306,49.018000000000001],[7.296,49.015999999999998],[7.294,49.012999999999998],[7.286,49.012999999999998],[7.275,49.021999999999998],[7.274,49.024999999999999],[7.27,49.027000000000001],[7.27,49.029000000000003],[7.26,49.033999999999999],[7.256,49.039000000000001],[7.24,49.039999999999999],[7.233000000000001,49.044000000000004],[7.23,49.044000000000004],[7.228,49.045999999999999],[7.229,49.051000000000002]]]]}},

  {"type": "Feature", "properties": {"type": "multipolygon", "name": "Sartène","center": {"lat": 41.622 ,"lng": 8.974}}, "geometry": {"type": "MultiPolygon","coordinates": [[[[9.003276689943609,41.642815540037596],[9.0033598,41.642825600000002],[9.003370860689143,41.642752759540571],[9.015000000000001,41.634999999999998],[9,41.619999999999997],[9,41.605000000000004],[9.015000000000001,41.609999999999999],[9.025,41.600000000000001],[9.035,41.615000000000002],[9.050000000000001,41.615000000000002],[9.065,41.594999999999999],[9.09,41.585000000000001],[9.075000000000001,41.564999999999998],[9.040000000000001,41.564999999999998],[9.02,41.555],[9.01,41.535000000000004],[9,41.535000000000004],[8.975,41.505000000000003],[8.960000000000001,41.505000000000003],[8.945,41.484999999999999],[8.915000000000001,41.484999999999999],[8.915000000000001,41.505000000000003],[8.880000000000001,41.5],[8.880000000000001,41.520000000000003],[8.84,41.509999999999998],[8.835000000000001,41.524999999999999],[8.845000000000001,41.530000000000001],[8.845000000000001,41.539999999999999],[8.785,41.550000000000004],[8.779999999999999,41.57],[8.795,41.575000000000003],[8.779999999999999,41.579999999999998],[8.779999999999999,41.594999999999999],[8.790000000000001,41.600000000000001],[8.81,41.590000000000003],[8.895,41.594999999999999],[8.895,41.605000000000004],[8.915000000000001,41.615000000000002],[8.91,41.630000000000003],[8.915000000000001,41.660000000000004],[8.970000000000001,41.649999999999999],[8.970000000000001,41.660000000000004],[8.984999999999999,41.664999999999999],[9.005000000000001,41.664999999999999],[9,41.645000000000003],[9.003276689943609,41.642815540037596]]]]}},
  {"type": "Feature", "properties": {"type": "multipolygon", "name": "Le Chateau de Suscinio","center": {"lat": 47.527,"lng": -2.769}}, "geometry": {"type": "GeometryCollection","geometries": [{"type": "MultiPolygon","coordinates": [[[[-2.720265272682777,47.552544212113801],[-2.7196022,47.552611400000004],[-2.718966559344107,47.552327759890687],[-2.705,47.550000000000004],[-2.705,47.560000000000002],[-2.69,47.564999999999998],[-2.68,47.555],[-2.68,47.535000000000004],[-2.66,47.524999999999999],[-2.66,47.505000000000003],[-2.675,47.5],[-2.67,47.490000000000002],[-2.68,47.484999999999999],[-2.685,47.494999999999997],[-2.73,47.505000000000003],[-2.755,47.484999999999999],[-2.76,47.494999999999997],[-2.775,47.494999999999997],[-2.77,47.484999999999999],[-2.775161086218095,47.487580543109047],[-2.7752774,47.487552800000003],[-2.775249110321651,47.487624555160828],[-2.778126795935647,47.489063397967826],[-2.7781442,47.489055],[-2.778140924721603,47.4890704623608],[-2.778167356746764,47.489083678373383],[-2.7782901,47.489037600000003],[-2.778215247191012,47.489107623595508],[-2.78,47.490000000000002],[-2.8,47.480000000000004],[-2.81,47.484999999999999],[-2.81,47.515000000000001],[-2.86,47.539999999999999],[-2.85,47.550000000000004],[-2.855,47.564999999999998],[-2.84,47.564999999999998],[-2.84,47.550000000000004],[-2.83,47.550000000000004],[-2.835,47.564999999999998],[-2.81,47.560000000000002],[-2.81,47.57],[-2.8,47.57],[-2.8,47.555],[-2.78669840523883,47.557660318952237],[-2.786716,47.557777000000002],[-2.786725,47.557853000000001],[-2.786728,47.557941],[-2.786726,47.558025999999998],[-2.786724,47.558059],[-2.786715,47.558079999999997],[-2.786698,47.558107],[-2.786666,47.558138999999997],[-2.786629,47.558185999999999],[-2.786609,47.558219000000001],[-2.786591,47.558244000000002],[-2.786563,47.558273999999997],[-2.786516,47.558281000000001],[-2.786498,47.558273],[-2.786485,47.558259],[-2.786441,47.558202999999999],[-2.786327,47.558055000000003],[-2.786239,47.557955],[-2.786162,47.557870999999999],[-2.786083666666669,47.557783266666668],[-2.775,47.560000000000002],[-2.775,47.550000000000004],[-2.765,47.550000000000004],[-2.76,47.539999999999999],[-2.75,47.539999999999999],[-2.735,47.555],[-2.720265272682777,47.552544212113801]]],[[[-2.765,47.564999999999998],[-2.765,47.575000000000003],[-2.76,47.575000000000003],[-2.76,47.564999999999998],[-2.765,47.564999999999998]]]]}]}},
  {"type": "Feature", "properties": {"type": "multipolygon", "name": "Rocherfort en Terre","center": {"lat": 47.699,"lng": -2.334}}, "geometry": {"type": "MultiPolygon","coordinates": [[[[-2.357,47.698],[-2.358,47.701999999999998],[-2.354,47.707999999999998],[-2.331,47.704999999999998],[-2.327,47.703000000000003],[-2.325,47.700000000000003],[-2.325,47.695999999999998],[-2.328,47.692999999999998],[-2.337,47.694000000000003],[-2.341,47.692999999999998],[-2.348,47.688000000000002],[-2.351,47.688000000000002],[-2.357,47.692],[-2.357,47.698]]]]}}
  ]}
